keshe_v1.0/simulation/qsim/keshe.msim.vcd
$comment
	File created using the following command:
		vcd file keshe.msim.vcd -direction
$end
$date
	Sat Aug 29 20:16:20 2020
$end
$version
	ModelSim Version 10.1d
$end
$timescale
	1ps
$end
$scope module keshe_vlg_vec_tst $end
$var reg 1 ! arr $end
$var reg 1 " clk $end
$var reg 1 # r $end
$var wire 1 $ c_100 $end
$var wire 1 % close_signal $end
$var wire 1 & open_signal $end
$var wire 1 ' sampler $end
$scope module i1 $end
$var wire 1 ( gnd $end
$var wire 1 ) vcc $end
$var wire 1 * unknown $end
$var tri1 1 + devclrn $end
$var tri1 1 , devpor $end
$var tri1 1 - devoe $end
$var wire 1 . open_signal~output_o $end
$var wire 1 / c_100~output_o $end
$var wire 1 0 close_signal~output_o $end
$var wire 1 1 clk~input_o $end
$var wire 1 2 arr~input_o $end
$var wire 1 3 r~input_o $end
$var wire 1 4 u2_open|open_signal~0_combout $end
$var wire 1 5 u2_open|cnt[0]~5_combout $end
$var wire 1 6 u2_open|cnt[0]~6 $end
$var wire 1 7 u2_open|cnt[1]~7_combout $end
$var wire 1 8 u2_open|cnt[1]~8 $end
$var wire 1 9 u2_open|cnt[2]~9_combout $end
$var wire 1 : u2_open|cnt[2]~10 $end
$var wire 1 ; u2_open|cnt[3]~11_combout $end
$var wire 1 < u2_open|cnt[3]~12 $end
$var wire 1 = u2_open|cnt[4]~13_combout $end
$var wire 1 > u2_open|LessThan0~1_combout $end
$var wire 1 ? u2_open|LessThan0~0_combout $end
$var wire 1 @ u2_open|open_signal~1_combout $end
$var wire 1 A u2_open|open_signal~q $end
$var wire 1 B u1_wait_2s|q1[0]~0_combout $end
$var wire 1 C u1_wait_2s|r~combout $end
$var wire 1 D u1_wait_2s|u1|Add0~0_combout $end
$var wire 1 E u1_wait_2s|u1|cnt_Q~1_combout $end
$var wire 1 F u1_wait_2s|u1|cnt_Q~0_combout $end
$var wire 1 G u1_wait_2s|u1|Equal2~0_combout $end
$var wire 1 H u1_wait_2s|u1|C~q $end
$var wire 1 I u1_wait_2s|q2[0]~0_combout $end
$var wire 1 J u1_wait_2s|u2|Add0~0_combout $end
$var wire 1 K u1_wait_2s|u2|cnt_Q~1_combout $end
$var wire 1 L u1_wait_2s|u2|cnt_Q~0_combout $end
$var wire 1 M u1_wait_2s|u2|Equal2~0_combout $end
$var wire 1 N u1_wait_2s|u2|C~q $end
$var wire 1 O u3_close|Add0~0_combout $end
$var wire 1 P u3_close|LessThan1~0_combout $end
$var wire 1 Q u3_close|Add0~12_combout $end
$var wire 1 R u3_close|Add0~1 $end
$var wire 1 S u3_close|Add0~2_combout $end
$var wire 1 T u3_close|Add0~10_combout $end
$var wire 1 U u3_close|Add0~3 $end
$var wire 1 V u3_close|Add0~4_combout $end
$var wire 1 W u3_close|Add0~11_combout $end
$var wire 1 X u3_close|Add0~5 $end
$var wire 1 Y u3_close|Add0~6_combout $end
$var wire 1 Z u3_close|cnt[3]~2_combout $end
$var wire 1 [ u3_close|LessThan0~0_combout $end
$var wire 1 \ u3_close|cnt[4]~0_combout $end
$var wire 1 ] u3_close|Add0~7 $end
$var wire 1 ^ u3_close|Add0~8_combout $end
$var wire 1 _ u3_close|cnt[4]~1_combout $end
$var wire 1 ` u3_close|Selector2~0_combout $end
$var wire 1 a u3_close|s.s2~q $end
$var wire 1 b u3_close|Selector1~0_combout $end
$var wire 1 c u3_close|close_en~q $end
$var wire 1 d u3_close|Selector0~0_combout $end
$var wire 1 e u3_close|Selector0~1_combout $end
$var wire 1 f u3_close|s.00~q $end
$var wire 1 g u3_close|Selector1~1_combout $end
$var wire 1 h u3_close|Selector1~2_combout $end
$var wire 1 i u3_close|s.s1~q $end
$var wire 1 j u3_close|Selector8~0_combout $end
$var wire 1 k u3_close|close_signal~0_combout $end
$var wire 1 l u3_close|close_signal~q $end
$var wire 1 m u1_wait_2s|q2 [3] $end
$var wire 1 n u1_wait_2s|q2 [2] $end
$var wire 1 o u1_wait_2s|q2 [1] $end
$var wire 1 p u1_wait_2s|q2 [0] $end
$var wire 1 q u2_open|cnt [4] $end
$var wire 1 r u2_open|cnt [3] $end
$var wire 1 s u2_open|cnt [2] $end
$var wire 1 t u2_open|cnt [1] $end
$var wire 1 u u2_open|cnt [0] $end
$var wire 1 v u1_wait_2s|q1 [3] $end
$var wire 1 w u1_wait_2s|q1 [2] $end
$var wire 1 x u1_wait_2s|q1 [1] $end
$var wire 1 y u1_wait_2s|q1 [0] $end
$var wire 1 z u3_close|cnt [4] $end
$var wire 1 { u3_close|cnt [3] $end
$var wire 1 | u3_close|cnt [2] $end
$var wire 1 } u3_close|cnt [1] $end
$var wire 1 ~ u3_close|cnt [0] $end
$upscope $end
$upscope $end
$enddefinitions $end
#0
$dumpvars
1!
0"
0#
0$
0%
0&
x'
0(
1)
x*
1+
1,
1-
0.
0/
00
01
12
03
14
15
06
07
18
09
0:
0;
1<
0=
0>
1?
1@
0A
1B
1C
0D
0E
0F
0G
0H
1I
0J
0K
0L
0M
0N
1O
0P
1Q
0R
0S
0T
1U
0V
0W
0X
0Y
0Z
0[
1\
1]
0^
0_
0`
0a
0b
0c
1d
0e
0f
0g
0h
0i
0j
0k
0l
0p
0o
0n
0m
0u
0t
0s
0r
0q
0y
0x
0w
0v
0~
0}
0|
0{
0z
$end
#5000
1"
11
0'
1u
1A
16
05
1.
1&
17
#10000
0"
01
1'
#15000
1"
11
0'
0u
1t
06
15
08
07
18
17
19
09
#20000
0"
01
1'
#25000
1"
11
0'
1u
16
05
08
07
19
#30000
0"
01
1'
#35000
1"
11
0'
0u
1s
0t
06
15
1:
09
18
17
07
1;
0:
19
0;
#40000
0"
01
1'
#45000
1"
11
0'
1u
16
05
17
#50000
0"
01
1'
#55000
1"
11
0'
0u
1t
06
15
08
07
18
17
1:
09
0:
19
1;
0;
#60000
0"
01
1'
#65000
1"
11
0'
1u
16
05
08
07
1:
09
1;
#70000
0"
01
1'
#75000
1"
11
0'
0u
1r
0s
0t
06
15
0<
0;
0:
19
18
17
07
1=
1<
1;
09
0=
#80000
0"
01
1'
#85000
1"
11
0'
1u
0?
16
05
17
#90000
0"
01
1'
#95000
1"
11
0'
0u
1t
06
15
08
07
18
17
19
09
#100000
0"
01
1'
#105000
1"
11
0'
1u
16
05
08
07
19
#110000
0"
01
1'
#115000
1"
11
0'
0u
1s
0t
06
15
1:
09
18
17
07
0<
0;
0:
19
1=
1<
1;
0=
#120000
0"
01
1'
#125000
1"
11
0'
1u
16
05
17
#130000
0"
01
1'
#135000
1"
11
0'
0u
1t
06
15
08
07
18
17
1:
09
0:
19
0<
0;
1<
1;
1=
0=
#140000
0"
01
1'
#145000
1"
11
0'
1u
16
05
08
07
1:
09
0<
0;
1=
#150000
0"
01
1'
#155000
1"
11
0'
0u
1q
0r
0s
0t
1?
06
15
0@
1>
0=
1<
1;
0:
19
18
17
1@
0>
07
1=
0;
09
#160000
0"
01
1'
#165000
1"
11
0'
1u
16
05
17
#170000
0"
01
1'
#175000
1"
11
0'
0u
1t
06
15
08
07
18
17
19
09
#180000
0"
01
1'
#185000
1"
11
0'
1u
16
05
08
07
19
#190000
0"
01
1'
#195000
1"
11
0'
0u
1s
0t
06
15
1:
09
18
17
07
1;
0:
19
0;
#200000
0"
01
1'
#205000
1"
11
0'
1u
16
05
17
#210000
0"
01
1'
#215000
1"
11
0'
0u
1t
06
15
08
07
18
17
1:
09
0:
19
1;
0;
#220000
0"
01
1'
#225000
1"
11
0'
1u
16
05
08
07
1:
09
1;
#230000
0"
01
1'
#235000
1"
11
0'
0u
1r
0s
0t
06
15
0<
0;
0:
19
18
17
07
0=
1<
1;
09
1=
#240000
0"
01
1'
#245000
1"
11
0'
1u
0?
16
05
0@
1>
17
#250000
0"
01
1'
#255000
1"
11
0'
0u
0q
0r
0A
1?
06
15
1@
0>
0=
0;
0.
0&
07
#260000
0"
01
1'
#265000
1"
11
0'
1u
1A
16
05
1.
1&
17
#270000
0"
01
1'
#275000
1"
11
0'
0u
1t
06
15
08
07
18
17
19
09
#280000
0"
01
1'
#285000
1"
11
0'
1u
16
05
08
07
19
#290000
0"
01
1'
#295000
1"
11
0'
0u
1s
0t
06
15
1:
09
18
17
07
1;
0:
19
0;
#300000
0"
01
1'
#305000
1"
11
0'
1u
16
05
17
#310000
0"
01
1'
#315000
1"
11
0'
0u
1t
06
15
08
07
18
17
1:
09
0:
19
1;
0;
#320000
0"
01
1'
#325000
1"
11
0'
1u
16
05
08
07
1:
09
1;
#330000
0"
01
1'
#335000
1"
11
0'
0u
1r
0s
0t
06
15
0<
0;
0:
19
18
17
07
1=
1<
1;
09
0=
#340000
0"
01
1'
#345000
1"
11
0'
1u
0?
16
05
17
#350000
0"
01
1'
#355000
1"
11
0'
0u
1t
06
15
08
07
18
17
19
09
#360000
0"
01
1'
#365000
1"
11
0'
1u
16
05
08
07
19
#370000
0"
01
1'
#375000
1"
11
0'
0u
1s
0t
06
15
1:
09
18
17
07
0<
0;
0:
19
1=
1<
1;
0=
#380000
0"
01
1'
#385000
1"
11
0'
1u
16
05
17
#390000
0"
01
1'
#395000
1"
11
0'
0u
1t
06
15
08
07
18
17
1:
09
0:
19
0<
0;
1<
1;
1=
0=
#400000
0"
01
1'
#405000
1"
11
0'
1u
16
05
08
07
1:
09
0<
0;
1=
#410000
0"
01
1'
#415000
1"
11
0'
0u
1q
0r
0s
0t
1?
06
15
0@
1>
0=
1<
1;
0:
19
18
17
1@
0>
07
1=
0;
09
#420000
0"
01
1'
#425000
1"
11
0'
1u
16
05
17
#430000
0"
01
1'
#435000
1"
11
0'
0u
1t
06
15
08
07
18
17
19
09
#440000
0"
01
1'
#445000
1"
11
0'
1u
16
05
08
07
19
#450000
0"
01
1'
#455000
1"
11
0'
0u
1s
0t
06
15
1:
09
18
17
07
1;
0:
19
0;
#460000
0"
01
1'
#465000
1"
11
0'
1u
16
05
17
#470000
0"
01
1'
#475000
1"
11
0'
0u
1t
06
15
08
07
18
17
1:
09
0:
19
1;
0;
#480000
0"
01
1'
#485000
1"
11
0'
1u
16
05
08
07
1:
09
1;
#490000
0"
01
1'
#495000
1"
11
0'
0u
1r
0s
0t
06
15
0<
0;
0:
19
18
17
07
0=
1<
1;
09
1=
#500000
0"
01
1'
#505000
1"
11
0'
1u
0?
16
05
0@
1>
17
#510000
0"
01
1'
#515000
1"
11
0'
0u
0q
0r
0A
1?
06
15
1@
0>
0=
0;
0.
0&
07
#520000
0"
01
1'
#525000
1"
11
0'
1u
1A
16
05
1.
1&
17
#530000
0"
01
1'
#535000
1"
11
0'
0u
1t
06
15
08
07
18
17
19
09
#540000
0"
01
1'
#545000
1"
11
0'
1u
16
05
08
07
19
#550000
0"
01
1'
#555000
1"
11
0'
0u
1s
0t
06
15
1:
09
18
17
07
1;
0:
19
0;
#560000
0"
01
1'
#565000
1"
11
0'
1u
16
05
17
#570000
0"
01
1'
#575000
1"
11
0'
0u
1t
06
15
08
07
18
17
1:
09
0:
19
1;
0;
#580000
0"
01
1'
#585000
1"
11
0'
1u
16
05
08
07
1:
09
1;
#590000
0"
01
1'
#595000
1"
11
0'
0u
1r
0s
0t
06
15
0<
0;
0:
19
18
17
07
1=
1<
1;
09
0=
#600000
0"
01
1'
#605000
1"
11
0'
1u
0?
16
05
17
#610000
0"
01
1'
#615000
1"
11
0'
0u
1t
06
15
08
07
18
17
19
09
#620000
0"
01
1'
#625000
1"
11
0'
1u
16
05
08
07
19
#630000
0"
01
1'
#635000
1"
11
0'
0u
1s
0t
06
15
1:
09
18
17
07
0<
0;
0:
19
1=
1<
1;
0=
#640000
0"
01
1'
#645000
1"
11
0'
1u
16
05
17
#650000
0"
01
1'
#655000
1"
11
0'
0u
1t
06
15
08
07
18
17
1:
09
0:
19
0<
0;
1<
1;
1=
0=
#660000
0"
01
1'
#665000
1"
11
0'
1u
16
05
08
07
1:
09
0<
0;
1=
#670000
0"
01
1'
#675000
1"
11
0'
0u
1q
0r
0s
0t
1?
06
15
0@
1>
0=
1<
1;
0:
19
18
17
1@
0>
07
1=
0;
09
#680000
0"
01
1'
#685000
1"
11
0'
1u
16
05
17
#690000
0"
01
1'
#695000
1"
11
0'
0u
1t
06
15
08
07
18
17
19
09
#700000
0"
01
1'
#705000
1"
11
0'
1u
16
05
08
07
19
#710000
0"
01
1'
#715000
1"
11
0'
0u
1s
0t
06
15
1:
09
18
17
07
1;
0:
19
0;
#720000
0"
01
1'
#725000
1"
11
0'
1u
16
05
17
#730000
0"
01
1'
#735000
1"
11
0'
0u
1t
06
15
08
07
18
17
1:
09
0:
19
1;
0;
#740000
0"
01
1'
#745000
1"
11
0'
1u
16
05
08
07
1:
09
1;
#750000
0"
01
1'
#755000
1"
11
0'
0u
1r
0s
0t
06
15
0<
0;
0:
19
18
17
07
0=
1<
1;
09
1=
#760000
0"
01
1'
#765000
1"
11
0'
1u
0?
16
05
0@
1>
17
#770000
0"
01
1'
#775000
1"
11
0'
0u
0q
0r
0A
1?
06
15
1@
0>
0=
0;
0.
0&
07
#780000
0"
01
1'
#785000
1"
11
0'
1u
1A
16
05
1.
1&
17
#790000
0"
01
1'
#795000
1"
11
0'
0u
1t
06
15
08
07
18
17
19
09
#800000
0"
01
1'
#805000
1"
11
0'
1u
16
05
08
07
19
#810000
0"
01
1'
#815000
1"
11
0'
0u
1s
0t
06
15
1:
09
18
17
07
1;
0:
19
0;
#820000
0"
01
1'
#825000
1"
11
0'
1u
16
05
17
#830000
0"
01
1'
#835000
1"
11
0'
0u
1t
06
15
08
07
18
17
1:
09
0:
19
1;
0;
#840000
0"
01
1'
#845000
1"
11
0'
1u
16
05
08
07
1:
09
1;
#850000
0"
01
1'
#855000
1"
11
0'
0u
1r
0s
0t
06
15
0<
0;
0:
19
18
17
07
1=
1<
1;
09
0=
#860000
0"
01
1'
#865000
1"
11
0'
1u
0?
16
05
17
#870000
0"
01
1'
#875000
1"
11
0'
0u
1t
06
15
08
07
18
17
19
09
#880000
0"
01
1'
#885000
1"
11
0'
1u
16
05
08
07
19
#890000
0"
01
1'
#895000
1"
11
0'
0u
1s
0t
06
15
1:
09
18
17
07
0<
0;
0:
19
1=
1<
1;
0=
#900000
0"
01
1'
#905000
1"
11
0'
1u
16
05
17
#910000
0"
01
1'
#915000
1"
11
0'
0u
1t
06
15
08
07
18
17
1:
09
0:
19
0<
0;
1<
1;
1=
0=
#920000
0"
01
1'
#925000
1"
11
0'
1u
16
05
08
07
1:
09
0<
0;
1=
#930000
0"
01
1'
#935000
1"
11
0'
0u
1q
0r
0s
0t
1?
06
15
0@
1>
0=
1<
1;
0:
19
18
17
1@
0>
07
1=
0;
09
#940000
0"
01
1'
#945000
1"
11
0'
1u
16
05
17
#950000
0"
01
1'
#955000
1"
11
0'
0u
1t
06
15
08
07
18
17
19
09
#960000
0"
01
1'
#965000
1"
11
0'
1u
16
05
08
07
19
#970000
0"
01
1'
#975000
1"
11
0'
0u
1s
0t
06
15
1:
09
18
17
07
1;
0:
19
0;
#980000
0"
01
1'
#985000
1"
11
0'
1u
16
05
17
#990000
0"
01
1'
#995000
1"
11
0'
0u
1t
06
15
08
07
18
17
1:
09
0:
19
1;
0;
#1000000
0"
01
1'
#1005000
1"
11
0'
1u
16
05
08
07
1:
09
1;
#1010000
0"
01
1'
#1015000
1"
11
0'
0u
1r
0s
0t
06
15
0<
0;
0:
19
18
17
07
0=
1<
1;
09
1=
#1020000
0"
01
1'
#1025000
1"
11
0'
1u
0?
16
05
0@
1>
17
#1030000
0"
01
1'
#1035000
1"
11
0'
0u
0q
0r
0A
1?
06
15
1@
0>
0=
0;
0.
0&
07
#1040000
0"
01
1'
#1045000
1"
11
0'
1u
1A
16
05
1.
1&
17
#1050000
0"
01
1'
#1055000
1"
11
0'
0u
1t
06
15
08
07
18
17
19
09
#1060000
0"
01
1'
#1065000
1"
11
0'
1u
16
05
08
07
19
#1070000
0"
01
1'
#1075000
1"
11
0'
0u
1s
0t
06
15
1:
09
18
17
07
1;
0:
19
0;
#1080000
0"
01
1'
#1085000
1"
11
0'
1u
16
05
17
#1090000
0"
01
1'
#1095000
1"
11
0'
0u
1t
06
15
08
07
18
17
1:
09
0:
19
1;
0;
#1100000
0"
01
1'
#1105000
1"
11
0'
1u
16
05
08
07
1:
09
1;
#1110000
0"
01
1'
#1115000
1"
11
0'
0u
1r
0s
0t
06
15
0<
0;
0:
19
18
17
07
1=
1<
1;
09
0=
#1120000
0"
01
1'
#1125000
1"
11
0'
1u
0?
16
05
17
#1130000
0"
01
1'
#1135000
1"
11
0'
0u
1t
06
15
08
07
18
17
19
09
#1140000
0"
01
1'
#1145000
1"
11
0'
1u
16
05
08
07
19
#1150000
0"
01
1'
#1155000
1"
11
0'
0u
1s
0t
06
15
1:
09
18
17
07
0<
0;
0:
19
1=
1<
1;
0=
#1160000
0"
01
1'
#1165000
1"
11
0'
1u
16
05
17
#1170000
0"
01
1'
#1175000
1"
11
0'
0u
1t
06
15
08
07
18
17
1:
09
0:
19
0<
0;
1<
1;
1=
0=
#1180000
0"
01
1'
#1185000
1"
11
0'
1u
16
05
08
07
1:
09
0<
0;
1=
#1190000
0"
01
1'
#1195000
1"
11
0'
0u
1q
0r
0s
0t
1?
06
15
0@
1>
0=
1<
1;
0:
19
18
17
1@
0>
07
1=
0;
09
#1200000
0"
01
1'
#1205000
1"
11
0'
1u
16
05
17
#1210000
0"
01
1'
#1215000
1"
11
0'
0u
1t
06
15
08
07
18
17
19
09
#1220000
0"
01
1'
#1225000
1"
11
0'
1u
16
05
08
07
19
#1230000
0"
01
1'
#1235000
1"
11
0'
0u
1s
0t
06
15
1:
09
18
17
07
1;
0:
19
0;
#1240000
0"
01
1'
#1245000
1"
11
0'
1u
16
05
17
#1250000
0"
01
1'
#1255000
1"
11
0'
0u
1t
06
15
08
07
18
17
1:
09
0:
19
1;
0;
#1260000
0"
01
1'
#1265000
1"
11
0'
1u
16
05
08
07
1:
09
1;
#1270000
0"
01
1'
#1275000
1"
11
0'
0u
1r
0s
0t
06
15
0<
0;
0:
19
18
17
07
0=
1<
1;
09
1=
#1280000
0"
01
1'
#1285000
1"
11
0'
1u
0?
16
05
0@
1>
17
#1290000
0"
01
1'
#1295000
1"
11
0'
0u
0q
0r
0A
1?
06
15
1@
0>
0=
0;
0.
0&
07
#1300000
0"
01
1'
#1305000
1"
11
0'
1u
1A
16
05
1.
1&
17
#1310000
0"
01
1'
#1315000
1"
11
0'
0u
1t
06
15
08
07
18
17
19
09
#1320000
0"
01
1'
#1325000
1"
11
0'
1u
16
05
08
07
19
#1330000
0"
01
1'
#1335000
1"
11
0'
0u
1s
0t
06
15
1:
09
18
17
07
1;
0:
19
0;
#1340000
0"
01
1'
#1345000
1"
11
0'
1u
16
05
17
#1350000
0"
01
1'
#1355000
1"
11
0'
0u
1t
06
15
08
07
18
17
1:
09
0:
19
1;
0;
#1360000
0"
01
1'
#1365000
1"
11
0'
1u
16
05
08
07
1:
09
1;
#1370000
0"
01
1'
#1375000
1"
11
0'
0u
1r
0s
0t
06
15
0<
0;
0:
19
18
17
07
1=
1<
1;
09
0=
#1380000
0"
01
1'
#1385000
1"
11
0'
1u
0?
16
05
17
#1390000
0"
01
1'
#1395000
1"
11
0'
0u
1t
06
15
08
07
18
17
19
09
#1400000
0"
01
1'
#1405000
1"
11
0'
1u
16
05
08
07
19
#1410000
0"
01
1'
#1415000
1"
11
0'
0u
1s
0t
06
15
1:
09
18
17
07
0<
0;
0:
19
1=
1<
1;
0=
#1420000
0"
01
1'
#1425000
1"
11
0'
1u
16
05
17
#1430000
0"
01
1'
#1435000
1"
11
0'
0u
1t
06
15
08
07
18
17
1:
09
0:
19
0<
0;
1<
1;
1=
0=
#1440000
0"
01
1'
#1445000
1"
11
0'
1u
16
05
08
07
1:
09
0<
0;
1=
#1450000
0"
01
1'
#1455000
1"
11
0'
0u
1q
0r
0s
0t
1?
06
15
0@
1>
0=
1<
1;
0:
19
18
17
1@
0>
07
1=
0;
09
#1460000
0"
01
1'
#1465000
1"
11
0'
1u
16
05
17
#1470000
0"
01
1'
#1475000
1"
11
0'
0u
1t
06
15
08
07
18
17
19
09
#1480000
0"
01
1'
#1485000
1"
11
0'
1u
16
05
08
07
19
#1490000
0"
01
1'
#1495000
1"
11
0'
0u
1s
0t
06
15
1:
09
18
17
07
1;
0:
19
0;
#1500000
0"
01
1'
#1505000
1"
11
0'
1u
16
05
17
#1510000
0"
01
1'
#1515000
1"
11
0'
0u
1t
06
15
08
07
18
17
1:
09
0:
19
1;
0;
#1520000
0"
01
1'
#1525000
1"
11
0'
1u
16
05
08
07
1:
09
1;
#1530000
0"
01
1'
#1535000
1"
11
0'
0u
1r
0s
0t
06
15
0<
0;
0:
19
18
17
07
0=
1<
1;
09
1=
#1540000
0"
01
1'
#1545000
1"
11
0'
1u
0?
16
05
0@
1>
17
#1550000
0"
01
1'
#1555000
1"
11
0'
0u
0q
0r
0A
1?
06
15
1@
0>
0=
0;
0.
0&
07
#1560000
0"
01
1'
#1565000
1"
11
0'
1u
1A
16
05
1.
1&
17
#1570000
0"
01
1'
#1575000
1"
11
0'
0u
1t
06
15
08
07
18
17
19
09
#1580000
0"
01
1'
#1585000
1"
11
0'
1u
16
05
08
07
19
#1590000
0"
01
1'
#1595000
1"
11
0'
0u
1s
0t
06
15
1:
09
18
17
07
1;
0:
19
0;
#1600000
0"
01
1'
#1605000
1"
11
0'
1u
16
05
17
#1610000
0"
01
1'
#1615000
1"
11
0'
0u
1t
06
15
08
07
18
17
1:
09
0:
19
1;
0;
#1620000
0"
01
1'
#1625000
1"
11
0'
1u
16
05
08
07
1:
09
1;
#1630000
0"
01
1'
#1635000
1"
11
0'
0u
1r
0s
0t
06
15
0<
0;
0:
19
18
17
07
1=
1<
1;
09
0=
#1640000
0"
01
1'
#1645000
1"
11
0'
1u
0?
16
05
17
#1650000
0"
01
1'
#1655000
1"
11
0'
0u
1t
06
15
08
07
18
17
19
09
#1660000
0"
01
1'
#1665000
1"
11
0'
1u
16
05
08
07
19
#1670000
0"
01
1'
#1675000
1"
11
0'
0u
1s
0t
06
15
1:
09
18
17
07
0<
0;
0:
19
1=
1<
1;
0=
#1680000
0"
01
1'
#1685000
1"
11
0'
1u
16
05
17
#1690000
0"
01
1'
#1695000
1"
11
0'
0u
1t
06
15
08
07
18
17
1:
09
0:
19
0<
0;
1<
1;
1=
0=
#1700000
0"
01
1'
#1705000
1"
11
0'
1u
16
05
08
07
1:
09
0<
0;
1=
#1710000
0"
01
1'
#1715000
1"
11
0'
0u
1q
0r
0s
0t
1?
06
15
0@
1>
0=
1<
1;
0:
19
18
17
1@
0>
07
1=
0;
09
#1720000
0"
01
1'
#1725000
1"
11
0'
1u
16
05
17
#1730000
0"
01
1'
#1735000
1"
11
0'
0u
1t
06
15
08
07
18
17
19
09
#1740000
0"
01
1'
#1745000
1"
11
0'
1u
16
05
08
07
19
#1750000
0"
01
1'
#1755000
1"
11
0'
0u
1s
0t
06
15
1:
09
18
17
07
1;
0:
19
0;
#1760000
0"
01
1'
#1765000
1"
11
0'
1u
16
05
17
#1770000
0"
01
1'
#1775000
1"
11
0'
0u
1t
06
15
08
07
18
17
1:
09
0:
19
1;
0;
#1780000
0"
01
1'
#1785000
1"
11
0'
1u
16
05
08
07
1:
09
1;
#1790000
0"
01
1'
#1795000
1"
11
0'
0u
1r
0s
0t
06
15
0<
0;
0:
19
18
17
07
0=
1<
1;
09
1=
#1800000
0"
01
1'
#1805000
1"
11
0'
1u
0?
16
05
0@
1>
17
#1810000
0"
01
1'
#1815000
1"
11
0'
0u
0q
0r
0A
1?
06
15
1@
0>
0=
0;
0.
0&
07
#1820000
0"
01
1'
#1825000
1"
11
0'
1u
1A
16
05
1.
1&
17
#1830000
0"
01
1'
#1835000
1"
11
0'
0u
1t
06
15
08
07
18
17
19
09
#1840000
0"
01
1'
#1845000
1"
11
0'
1u
16
05
08
07
19
#1850000
0"
01
1'
#1855000
1"
11
0'
0u
1s
0t
06
15
1:
09
18
17
07
1;
0:
19
0;
#1860000
0"
01
1'
#1865000
1"
11
0'
1u
16
05
17
#1870000
0"
01
1'
#1875000
1"
11
0'
0u
1t
06
15
08
07
18
17
1:
09
0:
19
1;
0;
#1880000
0"
01
1'
#1885000
1"
11
0'
1u
16
05
08
07
1:
09
1;
#1890000
0"
01
1'
#1895000
1"
11
0'
0u
1r
0s
0t
06
15
0<
0;
0:
19
18
17
07
1=
1<
1;
09
0=
#1900000
0"
01
1'
#1905000
1"
11
0'
1u
0?
16
05
17
#1910000
0"
01
1'
#1915000
1"
11
0'
0u
1t
06
15
08
07
18
17
19
09
#1920000
0"
01
1'
#1925000
1"
11
0'
1u
16
05
08
07
19
#1930000
0"
01
1'
#1935000
1"
11
0'
0u
1s
0t
06
15
1:
09
18
17
07
0<
0;
0:
19
1=
1<
1;
0=
#1940000
0"
01
1'
#1945000
1"
11
0'
1u
16
05
17
#1950000
0"
01
1'
#1955000
1"
11
0'
0u
1t
06
15
08
07
18
17
1:
09
0:
19
0<
0;
1<
1;
1=
0=
#1960000
0"
01
1'
#1965000
1"
11
0'
1u
16
05
08
07
1:
09
0<
0;
1=
#1970000
0"
01
1'
#1975000
1"
11
0'
0u
1q
0r
0s
0t
1?
06
15
0@
1>
0=
1<
1;
0:
19
18
17
1@
0>
07
1=
0;
09
#1980000
0"
01
1'
#1985000
1"
11
0'
1u
16
05
17
#1990000
0"
01
1'
#1995000
1"
11
0'
0u
1t
06
15
08
07
18
17
19
09
#2000000
0"
01
1'
#2005000
1"
11
0'
1u
16
05
08
07
19
#2010000
0"
01
1'
#2015000
1"
11
0'
0u
1s
0t
06
15
1:
09
18
17
07
1;
0:
19
0;
#2020000
0"
01
1'
#2025000
1"
11
0'
1u
16
05
17
#2030000
0"
01
1'
#2035000
1"
11
0'
0u
1t
06
15
08
07
18
17
1:
09
0:
19
1;
0;
#2040000
0"
01
1'
#2045000
1"
11
0'
1u
16
05
08
07
1:
09
1;
#2050000
0"
01
1'
#2055000
1"
11
0'
0u
1r
0s
0t
06
15
0<
0;
0:
19
18
17
07
0=
1<
1;
09
1=
#2060000
0"
01
1'
#2065000
1"
11
0'
1u
0?
16
05
0@
1>
17
#2070000
0"
01
1'
#2075000
1"
11
0'
0u
0q
0r
0A
1?
06
15
1@
0>
0=
0;
0.
0&
07
#2080000
0"
01
1'
#2085000
1"
11
0'
1u
1A
16
05
1.
1&
17
#2090000
0"
01
1'
#2095000
1"
11
0'
0u
1t
06
15
08
07
18
17
19
09
#2100000
0"
01
1'
#2105000
1"
11
0'
1u
16
05
08
07
19
#2110000
0"
01
1'
#2115000
1"
11
0'
0u
1s
0t
06
15
1:
09
18
17
07
1;
0:
19
0;
#2120000
0"
01
1'
#2125000
1"
11
0'
1u
16
05
17
#2130000
0"
01
1'
#2135000
1"
11
0'
0u
1t
06
15
08
07
18
17
1:
09
0:
19
1;
0;
#2140000
0"
01
1'
#2145000
1"
11
0'
1u
16
05
08
07
1:
09
1;
#2150000
0"
01
1'
#2155000
1"
11
0'
0u
1r
0s
0t
06
15
0<
0;
0:
19
18
17
07
1=
1<
1;
09
0=
#2160000
0"
01
1'
#2165000
1"
11
0'
1u
0?
16
05
17
#2170000
0"
01
1'
#2175000
1"
11
0'
0u
1t
06
15
08
07
18
17
19
09
#2180000
0"
01
1'
#2185000
1"
11
0'
1u
16
05
08
07
19
#2190000
0"
01
1'
#2195000
1"
11
0'
0u
1s
0t
06
15
1:
09
18
17
07
0<
0;
0:
19
1=
1<
1;
0=
#2200000
0"
01
1'
#2205000
1"
11
0'
1u
16
05
17
#2210000
0"
01
1'
#2215000
1"
11
0'
0u
1t
06
15
08
07
18
17
1:
09
0:
19
0<
0;
1<
1;
1=
0=
#2220000
0"
01
1'
#2225000
1"
11
0'
1u
16
05
08
07
1:
09
0<
0;
1=
#2230000
0"
01
1'
#2235000
1"
11
0'
0u
1q
0r
0s
0t
1?
06
15
0@
1>
0=
1<
1;
0:
19
18
17
1@
0>
07
1=
0;
09
#2240000
0"
01
1'
#2245000
1"
11
0'
1u
16
05
17
#2250000
0"
01
1'
#2255000
1"
11
0'
0u
1t
06
15
08
07
18
17
19
09
#2260000
0"
01
1'
#2265000
1"
11
0'
1u
16
05
08
07
19
#2270000
0"
01
1'
#2275000
1"
11
0'
0u
1s
0t
06
15
1:
09
18
17
07
1;
0:
19
0;
#2280000
0"
01
1'
#2285000
1"
11
0'
1u
16
05
17
#2290000
0"
01
1'
#2295000
1"
11
0'
0u
1t
06
15
08
07
18
17
1:
09
0:
19
1;
0;
#2300000
0"
01
1'
#2305000
1"
11
0'
1u
16
05
08
07
1:
09
1;
#2310000
0"
01
1'
#2315000
1"
11
0'
0u
1r
0s
0t
06
15
0<
0;
0:
19
18
17
07
0=
1<
1;
09
1=
#2320000
0"
01
1'
#2325000
1"
11
0'
1u
0?
16
05
0@
1>
17
#2330000
0"
01
1'
#2335000
1"
11
0'
0u
0q
0r
0A
1?
06
15
1@
0>
0=
0;
0.
0&
07
#2340000
0"
01
1'
#2345000
1"
11
0'
1u
1A
16
05
1.
1&
17
#2350000
0"
01
1'
#2355000
1"
11
0'
0u
1t
06
15
08
07
18
17
19
09
#2360000
0"
01
1'
#2365000
1"
11
0'
1u
16
05
08
07
19
#2370000
0"
01
1'
#2375000
1"
11
0'
0u
1s
0t
06
15
1:
09
18
17
07
1;
0:
19
0;
#2380000
0"
01
1'
#2385000
1"
11
0'
1u
16
05
17
#2390000
0"
01
1'
#2395000
1"
11
0'
0u
1t
06
15
08
07
18
17
1:
09
0:
19
1;
0;
#2400000
0"
01
1'
#2405000
1"
11
0'
1u
16
05
08
07
1:
09
1;
