4/simulation/qsim/test.msim.vcd
$comment
	File created using the following command:
		vcd file test.msim.vcd -direction
$end
$date
	Wed Aug 26 19:35:45 2020
$end
$version
	ModelSim Version 10.1d
$end
$timescale
	1ps
$end
$scope module test_vlg_vec_tst $end
$var reg 4 ! A [3:0] $end
$var reg 4 " B [3:0] $end
$var reg 1 # C0 $end
$var wire 1 $ C4 $end
$var wire 1 % S [3] $end
$var wire 1 & S [2] $end
$var wire 1 ' S [1] $end
$var wire 1 ( S [0] $end
$var wire 1 ) sampler $end
$scope module i1 $end
$var wire 1 * gnd $end
$var wire 1 + vcc $end
$var wire 1 , unknown $end
$var tri1 1 - devclrn $end
$var tri1 1 . devpor $end
$var tri1 1 / devoe $end
$var wire 1 0 S[0]~output_o $end
$var wire 1 1 S[1]~output_o $end
$var wire 1 2 S[2]~output_o $end
$var wire 1 3 S[3]~output_o $end
$var wire 1 4 C4~output_o $end
$var wire 1 5 A[0]~input_o $end
$var wire 1 6 B[0]~input_o $end
$var wire 1 7 C0~input_o $end
$var wire 1 8 u1|u2|S0~0_combout $end
$var wire 1 9 B[1]~input_o $end
$var wire 1 : A[1]~input_o $end
$var wire 1 ; u1|u3~0_combout $end
$var wire 1 < u2|u2|S0~combout $end
$var wire 1 = u2|u3~0_combout $end
$var wire 1 > A[2]~input_o $end
$var wire 1 ? B[2]~input_o $end
$var wire 1 @ u3|u2|S0~combout $end
$var wire 1 A u3|u3~0_combout $end
$var wire 1 B A[3]~input_o $end
$var wire 1 C B[3]~input_o $end
$var wire 1 D u4|u2|S0~combout $end
$var wire 1 E u4|u3~0_combout $end
$upscope $end
$upscope $end
$enddefinitions $end
#0
$dumpvars
b0 !
b0 "
0#
0$
0(
0'
0&
0%
x)
0*
1+
x,
1-
1.
1/
00
01
02
03
04
05
06
07
08
09
0:
0;
0<
0=
0>
0?
0@
0A
0B
0C
0D
0E
$end
#10000
b1 !
1#
15
17
0)
1;
1<
11
1'
#20000
b11 !
b10 !
0#
05
1:
07
1)
0;
1=
0<
0=
01
0'
1<
1@
11
12
1'
1&
0@
02
0&
#30000
b11 !
1#
15
17
0)
1;
1=
0<
01
0'
1@
12
1&
#40000
b111 !
b101 !
b100 !
0#
05
0:
1>
07
1)
0;
0=
1A
1<
0@
0A
11
02
1'
0&
0<
1@
1D
01
12
13
0'
1&
1%
0D
03
0%
#50000
b101 !
1#
15
17
0)
1;
1<
11
1'
#60000
b111 !
b110 !
0#
05
1:
07
1)
0;
1=
0<
0=
1A
01
0'
1<
0@
0A
11
02
1'
0&
1@
1D
12
13
1&
1%
0D
03
0%
#70000
b111 !
1#
15
17
0)
1;
1=
0<
1A
01
0'
0@
02
0&
1D
13
1%
#80000
b1111 !
b1011 !
b1001 !
b1000 !
0#
05
0:
0>
1B
07
1)
0;
0=
0A
1<
1@
1E
0D
11
12
14
03
1'
1&
1$
0%
0<
0@
0E
1D
01
02
04
13
0'
0&
0$
1%
#90000
b1001 !
1#
15
17
0)
1;
1<
11
1'
#100000
b1 "
b1011 !
b1010 !
0#
05
1:
16
07
1)
0;
1=
18
0<
0=
10
01
1(
0'
1<
1@
11
12
1'
1&
0@
02
0&
#110000
b1011 !
1#
15
17
0)
1;
1=
0<
01
0'
1@
12
1&
#120000
b1111 !
b1101 !
b1100 !
0#
05
0:
1>
07
1)
0;
0=
1A
1<
0@
0A
11
02
1'
0&
0<
1@
1E
0D
01
12
14
03
0'
1&
1$
0%
0E
1D
04
13
0$
1%
#130000
b1101 !
1#
15
17
0)
1;
1<
11
1'
#140000
b1111 !
b1110 !
0#
05
1:
07
1)
0;
1=
0<
0=
1A
01
0'
1<
0@
0A
11
02
1'
0&
1@
1E
0D
12
14
03
1&
1$
0%
0E
1D
04
13
0$
1%
#150000
b1111 !
1#
15
17
0)
1;
1=
0<
1A
01
0'
0@
02
0&
1E
0D
14
03
1$
0%
#160000
b111 !
b11 !
b1 !
b0 !
0#
05
0:
0>
0B
07
1)
0;
0=
0A
1<
1@
0E
1D
11
12
04
13
1'
1&
0$
1%
0<
0@
0D
01
02
03
0'
0&
0%
#170000
b1 !
1#
15
17
0)
1;
1<
11
1'
#180000
b11 !
b10 !
0#
05
1:
07
1)
0;
1=
0<
0=
01
0'
1<
1@
11
12
1'
1&
0@
02
0&
#190000
b11 !
1#
15
17
0)
1;
1=
0<
01
0'
1@
12
1&
#200000
b11 "
b10 "
b111 !
b101 !
b100 !
0#
05
0:
1>
06
19
07
1)
0;
1A
08
0@
0=
00
02
0(
0&
1<
1D
0A
11
13
1'
1%
1@
12
1&
0D
03
0%
#210000
b101 !
1#
15
17
0)
1;
1=
0<
1A
01
0'
0@
02
0&
1D
13
1%
#220000
b111 !
b110 !
0#
05
1:
07
1)
0;
1<
11
1'
0<
01
0'
#230000
b111 !
1#
15
17
0)
1;
1<
11
1'
#240000
b1111 !
b1011 !
b1001 !
b1000 !
0#
05
0:
0>
1B
07
1)
0;
0A
0<
1@
1E
0D
0=
01
12
14
03
0'
1&
1$
0%
1<
0E
1D
11
04
13
1'
0$
1%
0@
02
0&
#250000
b1001 !
1#
15
17
0)
1;
1=
0<
01
0'
1@
12
1&
#260000
b1011 !
b1010 !
0#
05
1:
07
1)
0;
1<
11
1'
0<
01
0'
#270000
b1011 !
1#
15
17
0)
1;
1<
11
1'
#280000
b1111 !
b1101 !
b1100 !
0#
05
0:
1>
07
1)
0;
1A
0<
0@
0=
01
02
0'
0&
1<
1E
0D
0A
11
14
03
1'
1$
0%
1@
12
1&
0E
1D
04
13
0$
1%
#290000
b1101 !
1#
15
17
0)
1;
1=
0<
1A
01
0'
0@
02
0&
1E
0D
14
03
1$
0%
#300000
b11 "
b1111 !
b1110 !
0#
05
1:
16
07
1)
0;
18
1<
10
11
1(
1'
0<
01
0'
#310000
b1111 !
1#
15
17
0)
1;
1<
11
1'
#320000
b111 !
b11 !
b1 !
b0 !
0#
05
0:
0>
0B
07
1)
0;
0A
0<
1@
0E
1D
0=
01
12
04
13
0'
1&
0$
1%
1<
0D
11
03
1'
0%
0@
02
0&
#330000
b1 !
1#
15
17
0)
1;
1=
0<
01
0'
1@
12
1&
#340000
b11 !
b10 !
0#
05
1:
07
1)
0;
1<
11
1'
0<
01
0'
#350000
b11 !
1#
15
17
0)
1;
1<
11
1'
#360000
b111 !
b101 !
b100 !
0#
05
0:
1>
07
1)
0;
1A
0<
0@
0=
01
02
0'
0&
1<
1D
0A
11
13
1'
1%
1@
12
1&
0D
03
0%
#370000
b101 !
1#
15
17
0)
1;
1=
0<
1A
01
0'
0@
02
0&
1D
13
1%
#380000
b111 !
b110 !
0#
05
1:
07
1)
0;
1<
11
1'
0<
01
0'
#390000
b111 !
1#
15
17
0)
1;
1<
11
1'
#400000
b111 "
b101 "
b100 "
b1111 !
b1011 !
b1001 !
b1000 !
0#
05
0:
0>
1B
06
09
1?
07
1)
0;
0=
08
1E
0D
0A
00
14
03
0(
1$
0%
0<
1@
01
12
0'
1&
0E
1D
04
13
0$
1%
#410000
b1001 !
1#
15
17
0)
1;
1<
11
1'
#420000
b1011 !
b1010 !
0#
05
1:
07
1)
0;
1=
0<
0=
1A
01
0'
1<
0@
0A
11
02
1'
0&
1@
1E
0D
12
14
03
1&
1$
0%
0E
1D
04
13
0$
1%
#430000
b1011 !
1#
15
17
0)
1;
1=
0<
1A
01
0'
0@
02
0&
1E
0D
14
03
1$
0%
#440000
b1111 !
b1101 !
b1100 !
0#
05
0:
1>
07
1)
0;
0=
1<
1@
11
12
1'
1&
0<
0@
01
02
0'
0&
#450000
b1101 !
1#
15
17
0)
1;
1<
11
1'
#460000
b1111 !
b1110 !
0#
05
1:
07
1)
0;
1=
0<
0=
01
0'
1<
1@
11
12
1'
1&
0@
02
0&
#470000
b1111 !
1#
15
17
0)
1;
1=
0<
01
0'
1@
12
1&
#480000
b111 !
b11 !
b1 !
b0 !
0#
05
0:
0>
0B
07
1)
0;
0=
1<
0@
0E
1D
0A
11
02
04
13
1'
0&
0$
1%
0<
1@
01
12
0'
1&
0D
03
0%
#490000
b1 !
1#
15
17
0)
1;
1<
11
1'
#500000
b101 "
b11 !
b10 !
0#
05
1:
16
07
1)
0;
1=
18
0<
0=
1A
10
01
1(
0'
1<
0@
0A
11
02
1'
0&
1@
1D
12
13
1&
1%
0D
03
0%
#510000
b11 !
1#
15
17
0)
1;
1=
0<
1A
01
0'
0@
02
0&
1D
13
1%
#520000
b111 !
b101 !
b100 !
0#
05
0:
1>
07
1)
0;
0=
1<
1@
11
12
1'
1&
0<
0@
01
02
0'
0&
#530000
b101 !
1#
15
17
0)
1;
1<
11
1'
#540000
b111 !
b110 !
0#
05
1:
07
1)
0;
1=
0<
0=
01
0'
1<
1@
11
12
1'
1&
0@
02
0&
#550000
b111 !
1#
15
17
0)
1;
1=
0<
01
0'
1@
12
1&
#560000
b1111 !
b1011 !
b1001 !
b1000 !
0#
05
0:
0>
1B
07
1)
0;
0=
1<
0@
1E
0D
0A
11
02
14
03
1'
0&
1$
0%
0<
1@
01
12
0'
1&
0E
1D
04
13
0$
1%
#570000
b1001 !
1#
15
17
0)
1;
1<
11
1'
#580000
b1011 !
b1010 !
0#
05
1:
07
1)
0;
1=
0<
0=
1A
01
0'
1<
0@
0A
11
02
1'
0&
1@
1E
0D
12
14
03
1&
1$
0%
0E
1D
04
13
0$
1%
#590000
b1011 !
1#
15
17
0)
1;
1=
0<
1A
01
0'
0@
02
0&
1E
0D
14
03
1$
0%
#600000
b111 "
b110 "
b1111 !
b1101 !
b1100 !
0#
05
0:
1>
06
19
07
1)
0;
08
1@
0=
00
12
0(
1&
1<
11
1'
0@
02
0&
#610000
b1101 !
1#
15
17
0)
1;
1=
0<
01
0'
1@
12
1&
#620000
b1111 !
b1110 !
0#
05
1:
07
1)
0;
1<
11
1'
0<
01
0'
#630000
b1111 !
1#
15
17
0)
1;
1<
11
1'
#640000
b111 !
b11 !
b1 !
b0 !
0#
05
0:
0>
0B
07
1)
0;
0<
0@
0E
1D
0=
01
02
04
13
0'
0&
0$
1%
1<
0A
11
1'
1@
12
1&
0D
03
0%
#650000
b1 !
1#
15
17
0)
1;
1=
0<
1A
01
0'
0@
02
0&
1D
13
1%
#660000
b11 !
b10 !
0#
05
1:
07
1)
0;
1<
11
1'
0<
01
0'
#670000
b11 !
1#
15
17
0)
1;
1<
11
1'
#680000
b111 !
b101 !
b100 !
0#
05
0:
1>
07
1)
0;
0<
1@
0=
01
12
0'
1&
1<
11
1'
0@
02
0&
#690000
b101 !
1#
15
17
0)
1;
1=
0<
01
0'
1@
12
1&
#700000
b111 "
b111 !
b110 !
0#
05
1:
16
07
1)
0;
18
1<
10
11
1(
1'
0<
01
0'
#710000
b111 !
1#
15
17
0)
1;
1<
11
1'
#720000
b1111 !
b1011 !
b1001 !
b1000 !
0#
05
0:
0>
1B
07
1)
0;
0<
0@
1E
0D
0=
01
02
14
03
0'
0&
1$
0%
1<
0A
11
1'
1@
12
1&
0E
1D
04
13
0$
1%
#730000
b1001 !
1#
15
17
0)
1;
1=
0<
1A
01
0'
0@
02
0&
1E
0D
14
03
1$
0%
#740000
b1011 !
b1010 !
0#
05
1:
07
1)
0;
1<
11
1'
0<
01
0'
#750000
b1011 !
1#
15
17
0)
1;
1<
11
1'
#760000
b1111 !
b1101 !
b1100 !
0#
05
0:
1>
07
1)
0;
0<
1@
0=
01
12
0'
1&
1<
11
1'
0@
02
0&
#770000
b1101 !
1#
15
17
0)
1;
1=
0<
01
0'
1@
12
1&
#780000
b1111 !
b1110 !
0#
05
1:
07
1)
0;
1<
11
1'
0<
01
0'
#790000
b1111 !
1#
15
17
0)
1;
1<
11
1'
#800000
b1111 "
b1011 "
b1001 "
b1000 "
b111 !
b11 !
b1 !
b0 !
0#
05
0:
0>
0B
06
09
0?
1C
07
1)
0;
0=
0A
08
00
0(
0<
0@
0E
1D
01
02
04
13
0'
0&
0$
1%
#810000
b1 !
1#
15
17
0)
1;
1<
11
1'
#820000
b11 !
b10 !
0#
05
1:
07
1)
0;
1=
0<
0=
01
0'
1<
1@
11
12
1'
1&
0@
02
0&
#830000
b11 !
1#
15
17
0)
1;
1=
0<
01
0'
1@
12
1&
#840000
b111 !
b101 !
b100 !
0#
05
0:
1>
07
1)
0;
0=
1A
1<
0@
0A
11
02
1'
0&
0<
1@
1E
0D
01
12
14
03
0'
1&
1$
0%
0E
1D
04
13
0$
1%
#850000
b101 !
1#
15
17
0)
1;
1<
11
1'
#860000
b111 !
b110 !
0#
05
1:
07
1)
0;
1=
0<
0=
1A
01
0'
1<
0@
0A
11
02
1'
0&
1@
1E
0D
12
14
03
1&
1$
0%
0E
1D
04
13
0$
1%
#870000
b111 !
1#
15
17
0)
1;
1=
0<
1A
01
0'
0@
02
0&
1E
0D
14
03
1$
0%
#880000
b1111 !
b1011 !
b1001 !
b1000 !
0#
05
0:
0>
1B
07
1)
0;
0=
0A
1<
1@
1D
11
12
13
1'
1&
1%
0<
0@
0D
01
02
03
0'
0&
0%
#890000
b1001 !
1#
15
17
0)
1;
1<
11
1'
#900000
b1001 "
b1011 !
b1010 !
0#
05
1:
16
07
1)
0;
1=
18
0<
0=
10
01
1(
0'
1<
1@
11
12
1'
1&
0@
02
0&
#910000
b1011 !
1#
15
17
0)
1;
1=
0<
01
0'
1@
12
1&
#920000
b1111 !
b1101 !
b1100 !
0#
05
0:
1>
07
1)
0;
0=
1A
1<
0@
0A
11
02
1'
0&
0<
1@
1D
01
12
13
0'
1&
1%
0D
03
0%
#930000
b1101 !
1#
15
17
0)
1;
1<
11
1'
#940000
b1111 !
b1110 !
0#
05
1:
07
1)
0;
1=
0<
0=
1A
01
0'
1<
0@
0A
11
02
1'
0&
1@
1D
12
13
1&
1%
0D
03
0%
#950000
b1111 !
1#
15
17
0)
1;
1=
0<
1A
01
0'
0@
02
0&
1D
13
1%
#960000
b111 !
b11 !
b1 !
b0 !
0#
05
0:
0>
0B
07
1)
0;
0=
0A
1<
1@
0D
11
12
03
1'
1&
0%
0<
0@
0E
1D
01
02
04
13
0'
0&
0$
1%
#970000
b1 !
1#
15
17
0)
1;
1<
11
1'
#980000
b11 !
b10 !
0#
05
1:
07
1)
0;
1=
0<
0=
01
0'
1<
1@
11
12
1'
1&
0@
02
0&
#990000
b11 !
1#
15
17
0)
1;
1=
0<
01
0'
1@
12
1&
